{
  "annotations": {
    "list": [
      {
        "builtIn": 1,
        "datasource": "-- Grafana --",
        "enable": true,
        "hide": true,
        "iconColor": "rgba(0, 211, 255, 1)",
        "name": "Annotations & Alerts",
        "type": "dashboard"
      }
    ]
  },
  "editable": true,
  "gnetId": null,
  "graphTooltip": 0,
  "id": 3,
  "links": [],
  "panels": [
    {
      "collapsed": false,
      "gridPos": {
        "h": 1,
        "w": 24,
        "x": 0,
        "y": 0
      },
      "id": 8,
      "panels": [],
      "title": "Vault",
      "type": "row"
    },
    {
      "description": "Bytes currently allocated to the active Vault node.",
      "gridPos": {
        "h": 5,
        "w": 24,
        "x": 0,
        "y": 1
      },
      "id": 13,
      "interval": "",
      "links": [],
      "options": {
        "displayMode": "basic",
        "fieldOptions": {
          "calcs": [
            "last"
          ],
          "defaults": {
            "max": 189000000,
            "min": 0,
            "unit": "decbytes"
          },
          "mappings": [],
          "override": {},
          "thresholds": [
            {
              "color": "green",
              "index": 0,
              "value": null
            },
            {
              "color": "#EAB839",
              "index": 1,
              "value": 151200000
            },
            {
              "color": "red",
              "index": 2,
              "value": 170100000
            }
          ],
          "values": false
        },
        "orientation": "horizontal"
      },
      "targets": [
        {
          "expr": "vault_runtime_alloc_bytes",
          "format": "time_series",
          "interval": "",
          "intervalFactor": 1,
          "legendFormat": "{{instance}}",
          "refId": "A"
        }
      ],
      "timeFrom": null,
      "timeShift": null,
      "title": "Active Vault Bytes Allocated",
      "transparent": true,
      "type": "bargauge"
    },
    {
      "cacheTimeout": null,
      "description": "Displays the number of get requests to the Consul backend.",
      "gridPos": {
        "h": 8,
        "w": 12,
        "x": 0,
        "y": 6
      },
      "id": 10,
      "links": [],
      "options": {
        "fieldOptions": {
          "calcs": [
            "sum"
          ],
          "defaults": {
            "max": 100,
            "min": 0
          },
          "mappings": [],
          "override": {},
          "thresholds": [
            {
              "color": "green",
              "index": 0,
              "value": null
            },
            {
              "color": "red",
              "index": 1,
              "value": 80
            }
          ],
          "values": false
        },
        "orientation": "auto",
        "showThresholdLabels": false,
        "showThresholdMarkers": true
      },
      "pluginVersion": "6.2.1",
      "targets": [
        {
          "expr": "vault_consul_get_count",
          "format": "time_series",
          "intervalFactor": 1,
          "legendFormat": "{{instance}}",
          "refId": "A"
        }
      ],
      "timeFrom": null,
      "timeShift": null,
      "title": "Consul Get Requests",
      "transparent": true,
      "type": "gauge"
    },
    {
      "cacheTimeout": null,
      "description": "Displays the number of put requests to the Consul backend.",
      "gridPos": {
        "h": 8,
        "w": 12,
        "x": 12,
        "y": 6
      },
      "id": 11,
      "links": [],
      "options": {
        "fieldOptions": {
          "calcs": [
            "sum"
          ],
          "defaults": {
            "max": 100,
            "min": 0
          },
          "mappings": [],
          "override": {},
          "thresholds": [
            {
              "color": "green",
              "index": 0,
              "value": null
            },
            {
              "color": "red",
              "index": 1,
              "value": 80
            }
          ],
          "values": false
        },
        "orientation": "auto",
        "showThresholdLabels": false,
        "showThresholdMarkers": true
      },
      "pluginVersion": "6.2.1",
      "targets": [
        {
          "expr": "vault_consul_put_count",
          "format": "time_series",
          "intervalFactor": 1,
          "legendFormat": "{{instance}}",
          "refId": "A"
        }
      ],
      "timeFrom": null,
      "timeShift": null,
      "title": "Consul Put Requests",
      "transparent": true,
      "type": "gauge"
    },
    {
      "collapsed": false,
      "gridPos": {
        "h": 1,
        "w": 24,
        "x": 0,
        "y": 14
      },
      "id": 6,
      "panels": [],
      "title": "Consul",
      "type": "row"
    },
    {
      "aliasColors": {},
      "bars": false,
      "dashLength": 10,
      "dashes": false,
      "description": "Displays the latest Raft leader for Consul when it changes.",
      "fill": 0,
      "gridPos": {
        "h": 4,
        "w": 24,
        "x": 0,
        "y": 15
      },
      "id": 4,
      "interval": "",
      "legend": {
        "avg": false,
        "current": false,
        "max": false,
        "min": false,
        "show": true,
        "total": false,
        "values": false
      },
      "lines": true,
      "linewidth": 0,
      "links": [],
      "nullPointMode": "null",
      "options": {},
      "percentage": false,
      "pointradius": 10,
      "points": true,
      "renderer": "flot",
      "seriesOverrides": [],
      "spaceLength": 10,
      "stack": false,
      "steppedLine": false,
      "targets": [
        {
          "expr": "consul_raft_state_leader\n",
          "format": "time_series",
          "instant": false,
          "interval": "",
          "intervalFactor": 1,
          "legendFormat": "{{instance}}",
          "refId": "A"
        }
      ],
      "thresholds": [],
      "timeFrom": null,
      "timeRegions": [],
      "timeShift": null,
      "title": "Consul Leader",
      "tooltip": {
        "shared": true,
        "sort": 0,
        "value_type": "individual"
      },
      "transparent": true,
      "type": "graph",
      "xaxis": {
        "buckets": null,
        "mode": "time",
        "name": null,
        "show": true,
        "values": []
      },
      "yaxes": [
        {
          "decimals": 0,
          "format": "none",
          "label": "",
          "logBase": 2,
          "max": "1.5",
          "min": ".5",
          "show": false
        },
        {
          "format": "short",
          "label": null,
          "logBase": 1,
          "max": null,
          "min": null,
          "show": false
        }
      ],
      "yaxis": {
        "align": false,
        "alignLevel": 1
      }
    },
    {
      "description": "Bytes currently allocated to Consul on each respective node.",
      "gridPos": {
        "h": 7,
        "w": 24,
        "x": 0,
        "y": 19
      },
      "id": 15,
      "links": [],
      "options": {
        "displayMode": "basic",
        "fieldOptions": {
          "calcs": [
            "last"
          ],
          "defaults": {
            "max": 189000000,
            "min": 0,
            "unit": "decbytes"
          },
          "mappings": [],
          "override": {},
          "thresholds": [
            {
              "color": "green",
              "index": 0,
              "value": null
            },
            {
              "color": "#EAB839",
              "index": 1,
              "value": 151200000
            },
            {
              "color": "red",
              "index": 2,
              "value": 170100000
            }
          ],
          "values": false
        },
        "orientation": "horizontal"
      },
      "targets": [
        {
          "expr": "consul_runtime_alloc_bytes",
          "format": "time_series",
          "intervalFactor": 1,
          "legendFormat": "{{instance}}",
          "refId": "A"
        }
      ],
      "timeFrom": null,
      "timeShift": null,
      "title": "Consul Bytes Allocated ",
      "type": "bargauge"
    }
  ],
  "schemaVersion": 18,
  "style": "dark",
  "tags": [],
  "templating": {
    "list": []
  },
  "time": {
    "from": "now-6h",
    "to": "now"
  },
  "timepicker": {
    "refresh_intervals": [
      "5s",
      "10s",
      "30s",
      "1m",
      "5m",
      "15m",
      "30m",
      "1h",
      "2h",
      "1d"
    ],
    "time_options": [
      "5m",
      "15m",
      "1h",
      "6h",
      "12h",
      "24h",
      "2d",
      "7d",
      "30d"
    ]
  },
  "timezone": "",
  "title": "Vault Consul Dashboard",
  "uid": "cA6lQ-GWz",
  "version": 1
}